<svg width="32" height="32" viewBox="0 0 32 32" fill="none" xmlns="http://www.w3.org/2000/svg">
<g clip-path="url(#clip0_437_11740)">
<path d="M8.4375 16.1895L5.625 18.0645V21.4359L7.9175 19.9074C8.23244 19.6968 8.64262 19.6968 8.95756 19.9074L11.25 21.4359V18.0645L8.4375 16.1895Z" fill="white"/>
<path d="M8.4375 4.87695L5.625 6.75195V10.1859L7.9175 8.65739C8.23244 8.44683 8.64262 8.44683 8.95756 8.65739L11.25 10.1859V6.75195L8.4375 4.87695Z" fill="white"/>
<path d="M5.625 0V4.49844L7.9175 2.96994C8.23244 2.75938 8.64256 2.75938 8.9575 2.97L11.25 4.49844V0H5.625Z" fill="white"/>
<path d="M8.4375 10.5645L5.625 12.4395V15.8109L7.9175 14.2824C8.23244 14.0718 8.64262 14.0718 8.95756 14.2824L11.25 15.8109V12.4395L8.4375 10.5645Z" fill="white"/>
<path d="M13.125 0.0947266V31.905C15.2619 31.4694 16.875 29.5759 16.875 27.3124V4.68735C16.875 2.42385 15.2619 0.530289 13.125 0.0947266Z" fill="white"/>
<path d="M0 4.68735V27.3124C0 29.5759 1.61306 31.4694 3.75 31.905V0.0947266C1.61306 0.530289 0 2.42385 0 4.68735Z" fill="white"/>
<path d="M8.4375 21.8145L5.625 23.6895V27.1234L7.9175 25.5949C8.23244 25.3843 8.64262 25.3843 8.95756 25.5949L11.25 27.1234V23.6895L8.4375 21.8145Z" fill="white"/>
<path d="M8.4375 27.502L5.625 29.377V32H11.25V29.377L8.4375 27.502Z" fill="white"/>
<path d="M26.25 9.4375C27.2856 9.4375 28.125 8.59794 28.125 7.5625C28.125 6.52694 27.2856 5.6875 26.25 5.6875V2.8125C26.25 1.26163 24.9884 0 23.4375 0C21.8866 0 20.625 1.26163 20.625 2.8125V5.6875C19.5894 5.6875 18.75 6.52694 18.75 7.5625C18.75 8.59794 19.5894 9.4375 20.625 9.4375C19.5894 9.4375 18.75 10.2769 18.75 11.3125C18.75 12.3479 19.5894 13.1875 20.625 13.1875H26.25C27.2856 13.1875 28.125 12.3479 28.125 11.3125C28.125 10.2769 27.2856 9.4375 26.25 9.4375Z" fill="white"/>
<path d="M29.125 15.0625H18.75V22.5625H29.125C30.6759 22.5625 32 21.3009 32 19.75V17.875C32 16.3241 30.6759 15.0625 29.125 15.0625Z" fill="white"/>
</g>
<defs>
<clipPath id="clip0_437_11740">
<rect width="32" height="32" fill="white"/>
</clipPath>
</defs>
</svg>
