<svg width="28" height="28" viewBox="0 0 28 28" fill="none" xmlns="http://www.w3.org/2000/svg">
<g clip-path="url(#clip0_373_1134)">
<path d="M15.5469 14L27.6797 1.86721C28.1068 1.44004 28.1068 0.747481 27.6797 0.320372C27.2525 -0.106736 26.5599 -0.106791 26.1328 0.320372L14 12.4532L1.86721 0.320372C1.44004 -0.106791 0.747481 -0.106791 0.320372 0.320372C-0.106736 0.747536 -0.106791 1.4401 0.320372 1.86721L12.4532 14L0.320372 26.1328C-0.106791 26.56 -0.106791 27.2525 0.320372 27.6797C0.533927 27.8932 0.813871 28 1.09382 28C1.37376 28 1.65365 27.8932 1.86726 27.6797L14 15.5469L26.1328 27.6797C26.3463 27.8932 26.6263 28 26.9062 28C27.1862 28 27.466 27.8932 27.6797 27.6797C28.1068 27.2525 28.1068 26.5599 27.6797 26.1328L15.5469 14Z" fill="white"/>
</g>
<defs>
<clipPath id="clip0_373_1134">
<rect width="28" height="28" fill="white"/>
</clipPath>
</defs>
</svg>
