<svg width="247" height="94" viewBox="0 0 247 94" fill="none" xmlns="http://www.w3.org/2000/svg">
<path d="M221.479 0H0L25.5243 46.9555L0 94H221.479L247.004 46.9555L221.479 0Z" fill="#239F40"/>
</svg>
