<svg width="16" height="16" viewBox="0 0 16 16" fill="none" xmlns="http://www.w3.org/2000/svg">
<g id="Icon / Pagination / Last">
<path id="Vector" d="M4.27203 4L3.33203 4.94L6.38536 8L3.33203 11.06L4.27203 12L8.27203 8L4.27203 4Z" fill="#4F4F4F"/>
<path id="Vector_2" d="M8.66656 4L7.72656 4.94L10.7799 8L7.72656 11.06L8.66656 12L12.6666 8L8.66656 4Z" fill="#4F4F4F"/>
</g>
</svg>
