<svg width="50" height="52" viewBox="0 0 50 52" fill="none" xmlns="http://www.w3.org/2000/svg">
<path d="M23.8214 0.859771C24.5236 0.347495 25.4764 0.347496 26.1786 0.859771L31.3009 4.5962C31.6442 4.84664 32.0584 4.98122 32.4833 4.98041L38.8235 4.96834C39.6928 4.96668 40.4636 5.5267 40.7306 6.35392L42.6783 12.3875C42.8089 12.7919 43.0649 13.1442 43.4091 13.3934L48.5456 17.1103C49.2498 17.6199 49.5442 18.526 49.274 19.3522L47.3033 25.3783C47.1712 25.7823 47.1712 26.2177 47.3033 26.6217L49.274 32.6478C49.5442 33.474 49.2498 34.3801 48.5456 34.8897L43.4091 38.6066C43.0649 38.8557 42.8089 39.2081 42.6783 39.6125L40.7306 45.6461C40.4636 46.4733 39.6928 47.0333 38.8235 47.0317L32.4833 47.0196C32.0584 47.0188 31.6442 47.1534 31.3009 47.4038L26.1786 51.1402C25.4764 51.6525 24.5236 51.6525 23.8214 51.1402L18.6991 47.4038C18.3558 47.1534 17.9416 47.0188 17.5167 47.0196L11.1765 47.0317C10.3072 47.0333 9.53644 46.4733 9.2694 45.6461L7.32165 39.6125C7.1911 39.2081 6.93513 38.8557 6.59086 38.6066L1.45445 34.8897C0.750229 34.3801 0.455811 33.474 0.726001 32.6478L2.6967 26.6217C2.82879 26.2177 2.82879 25.7823 2.6967 25.3783L0.726001 19.3522C0.455811 18.526 0.750228 17.6199 1.45445 17.1103L6.59086 13.3934C6.93513 13.1442 7.1911 12.7919 7.32165 12.3875L9.2694 6.35392C9.53644 5.5267 10.3072 4.96668 11.1765 4.96834L17.5167 4.98041C17.9416 4.98122 18.3558 4.84664 18.6991 4.5962L23.8214 0.859771Z" fill="#C82127"/>
</svg>
