<svg width="100" height="100" viewBox="0 0 100 100" fill="none" xmlns="http://www.w3.org/2000/svg">
<g clip-path="url(#clip0_298_1191)">
<path d="M35.3927 88.2283C34.4787 89.8205 33.48 91.582 32.4645 93.3266C31.9736 94.1734 31.4997 95.0373 30.5179 95.4776C29.7563 95.8164 29.0623 95.8164 28.3514 95.4099C26.0664 94.0887 23.7813 92.7676 21.4963 91.4634C20.633 90.9722 20.2776 90.1592 20.7346 89.0752C21.3101 87.7033 22.0887 86.4329 22.7996 85.1118C23.2905 84.231 23.8321 83.3672 24.2891 82.4695C24.4076 82.2324 24.3399 81.7412 24.1537 81.5549C22.4103 79.7595 20.6161 78.0318 18.8558 76.2534C18.4326 75.8299 18.0264 75.9146 17.5694 76.1856C15.7752 77.2358 13.981 78.2859 12.1869 79.3191C10.5958 80.2337 9.29249 79.878 8.37847 78.2859C7.15978 76.1856 5.95802 74.0854 4.73934 71.9851C4.04536 70.7825 4.29926 69.6816 5.50102 68.9702C7.39675 67.8523 9.27556 66.7344 11.1882 65.6504C11.933 65.227 12.0684 64.8713 11.7806 63.9905C11.0528 61.7717 10.5281 59.4851 9.93568 57.2154C9.80027 56.6734 9.63101 56.3347 8.93703 56.3686C6.80433 56.4363 4.67163 56.4194 2.53893 56.4024C0.795531 56.3855 0.0338524 55.5894 0.0338524 53.8618C0 51.4058 0 48.899 0 46.4092C0 45.0203 0.829384 44.1057 2.20041 44.0718C4.41774 44.021 6.61814 43.9871 8.83548 43.9871C9.46175 43.9871 9.64793 43.75 9.78334 43.1911C10.3588 40.8367 10.9513 38.4654 11.6283 36.128C11.7806 35.603 11.6791 35.3659 11.239 35.1118C9.42789 34.0955 7.65064 33.0454 5.83954 32.063C4.36696 31.2669 3.90995 29.9119 4.73934 28.4553C6.0088 26.2364 7.29519 24.0346 8.61544 21.8496C9.27556 20.7486 10.325 20.4099 11.5098 21.0027C12.8808 21.6972 14.2011 22.5102 15.5552 23.2554C16.2322 23.645 16.9093 24.0684 17.6033 24.4072C17.8064 24.5088 18.2295 24.4411 18.3819 24.2717C20.2099 22.4932 21.9871 20.664 23.8152 18.8855C24.2383 18.479 24.1029 18.1741 23.8659 17.7846C22.8165 16.0061 21.784 14.2276 20.7684 12.4492C19.8375 10.8232 19.956 9.85772 21.5132 8.87534C23.7305 7.48645 25.9986 6.19919 28.3006 4.9458C29.5701 4.26829 30.6195 4.69173 31.3981 6.01287C32.4645 7.80827 33.5139 9.60366 34.5464 11.4329C34.868 11.9919 35.1388 12.1274 35.8158 11.9241C38.1686 11.2127 40.5552 10.603 42.9418 9.99322C43.5342 9.84079 43.6865 9.53591 43.6865 9.01084C43.6865 6.79201 43.6696 4.57317 43.6865 2.35434C43.6865 0.558943 44.2112 0.0169377 45.9546 0.0169377C48.5613 0.0169377 51.1679 0 53.7745 0C55.2133 0 55.9242 0.575881 55.9919 2.04946C56.0934 4.20054 56.0765 6.35163 56.1273 8.50271C56.1273 8.90921 56.1273 9.33266 56.1273 9.77304C57.6506 10.1457 59.1232 10.4675 60.5789 10.857C61.5944 11.128 62.6269 11.4329 63.6087 11.8056C64.2519 12.0427 64.6412 12.0766 65.0305 11.3482C66.063 9.41734 67.214 7.5542 68.2972 5.64024C69.0589 4.30217 70.176 3.84485 71.564 4.74255C73.7475 6.14837 76.0664 7.33401 78.3175 8.63821C79.4177 9.28184 79.7901 10.2473 79.1977 11.416C78.3345 13.1436 77.3189 14.8035 76.371 16.4973C75.2878 18.3774 75.3385 18.3096 76.9634 19.7663C78.2837 20.9519 79.5024 22.273 80.6703 23.6111C81.5166 24.5596 81.4489 24.6104 82.5829 23.9499C84.4448 22.8659 86.3236 21.7649 88.1855 20.6809C89.3703 19.9864 90.2167 20.0881 90.9106 21.2229C92.434 23.7297 93.8727 26.2703 95.2776 28.8449C95.7854 29.7595 95.3961 30.7249 94.4482 31.2839C92.434 32.4695 90.4367 33.6551 88.4055 34.8069C87.8301 35.1287 87.7962 35.4505 87.9655 36.0264C88.6256 38.313 89.2519 40.6165 89.8443 42.9201C89.9966 43.5129 90.2844 43.5806 90.7922 43.5806C93.0603 43.5637 95.3453 43.5467 97.6134 43.5637C99.1875 43.5806 99.9661 44.3259 99.9661 45.8841C99.9831 48.4925 99.9831 51.084 99.9661 53.6924C99.9492 55.0644 99.323 55.7927 97.935 55.8943C96.4455 55.9959 94.956 55.9451 93.4665 55.9621C92.5356 55.979 91.6215 55.9451 90.6906 56.0467C90.4198 56.0806 90.0305 56.3855 89.9628 56.6396C89.2519 59.248 88.5917 61.8733 87.8978 64.5833C89.2011 65.3286 90.5044 66.04 91.7739 66.7852C92.8064 67.395 93.8727 67.9878 94.8206 68.7161C95.8023 69.4783 95.9377 70.4099 95.3284 71.477C94.0928 73.6789 92.8064 75.8469 91.5369 78.0488C90.5552 79.7425 89.455 79.7934 87.8639 78.9295C85.9174 77.8625 84.0047 76.7446 82.0921 75.6097C81.652 75.3388 81.3981 75.4404 81.0765 75.7622C79.367 77.5068 77.6743 79.2683 75.914 80.9621C75.4739 81.3855 75.4401 81.6734 75.7278 82.1646C76.8957 84.1463 78.0467 86.1619 79.1808 88.1775C79.9255 89.5156 79.6209 90.7012 78.3006 91.4803C76.1002 92.7845 73.8829 94.0549 71.6486 95.3252C70.3453 96.0705 69.2451 95.7486 68.3819 94.3428C67.2647 92.4797 66.1476 90.6165 65.0982 88.7195C64.7089 88.0081 64.3365 87.8557 63.5579 88.1098C61.3744 88.7873 59.1401 89.3631 56.9397 89.9898C56.5674 90.0915 56.3643 90.1931 56.3812 90.7181C56.432 92.8862 56.3812 95.0542 56.3304 97.2222C56.2796 99.1023 55.4672 99.9661 53.5714 100C51.1679 100.051 48.7475 100.051 46.3439 100.017C44.6175 99.9831 43.9743 99.2547 43.9573 97.4763C43.9404 95.3591 43.8896 93.2588 43.9404 91.1416C43.9573 90.3625 43.6188 90.1423 42.9587 90.0068C40.5213 89.414 38.0501 88.8381 35.3927 88.2283ZM74.7969 50.3726C75.22 36.7039 64.0487 24.7459 49.306 24.9492C36.476 25.1186 24.4753 35.6369 24.763 50.7961C25 63.3469 35.2234 75.2032 50.3216 75.0169C63.2363 74.8645 74.6276 64.2954 74.7969 50.3726Z" fill="#D12026"/>
<path d="M48.8833 69.9352C40.2341 70.0368 30.4338 62.0592 29.7567 51.5409C28.9443 38.9054 39.0662 29.5388 50.102 29.6913C61.3749 29.8437 71.0059 39.2441 70.1765 51.2191C69.3641 62.8722 58.9714 70.2231 50.8468 69.9182C50.8468 57.7739 50.8468 45.6296 50.8468 33.4345C50.119 33.4345 49.5435 33.4345 48.8664 33.4345C48.8833 45.5788 48.8833 57.7231 48.8833 69.9352ZM54.6552 65.7516C60.9009 64.278 67.0452 57.0795 66.402 49.339C62.5089 49.339 58.599 49.339 54.6552 49.339C54.6552 54.8098 54.6552 60.2468 54.6552 65.7516ZM33.4805 49.339C33.3112 53.5903 34.5638 57.2997 37.2889 60.467C39.3708 62.8722 41.8251 64.7353 44.9565 65.6838C44.9565 60.1622 44.9565 54.759 44.9565 49.339C41.1311 49.339 37.3735 49.339 33.4805 49.339ZM65.7926 45.3925C65.0479 40.65 59.3099 34.9758 54.6721 34.0951C54.6721 37.8552 54.6721 41.6154 54.6721 45.3925C58.4128 45.3925 62.1027 45.3925 65.7926 45.3925ZM44.9734 34.1459C39.8109 35.4332 34.6992 41.3783 34.2422 45.3925C37.8136 45.3925 41.3681 45.3925 44.9734 45.3925C44.9734 41.6323 44.9734 37.923 44.9734 34.1459Z" fill="#D12026"/>
</g>
<defs>
<clipPath id="clip0_298_1191">
<rect width="100" height="100" fill="white"/>
</clipPath>
</defs>
</svg>
